468280 562870
989404 619481
988691 703181
233929 402026
340176 846300
910470 754997
593917 687279
565797 835232
75495 80300
829569 389562
789594 685824
735838 872181
269027 726216
257354 907850
607659 797314
553226 127648
526088 981855
315089 544740
713644 887537
792082 153633
524958 590432
70755 280070
917697 245707
162617 216447
225514 442136
106634 567176
802740 161052
835769 315362
536819 455936
976859 326646
359252 549955
300653 447808
738158 834143
786289 911020
904628 594628
749351 222293
173406 741948
153534 49482
945007 1512
273835 296874
49510 579769
930485 440819
782870 906975
121413 847106
659965 894837
680224 855693
648733 352200
566985 157691
338214 130907
617263 626319
867688 225731
213542 801189
745488 902383
247578 981717
819141 634676
319540 404997
5095 191686
901576 43801
945805 239222
859075 216786
732333 721505
78742 443897
970585 443116
902943 586312
929440 146709
649926 588816
925369 17223
112961 163532
22064 46108
331425 28527
187374 176594
667437 369687
625358 238114
720518 204609
680716 460450
763164 638032
989347 57412
350731 511924
84974 520572
831946 249275
603802 58430
245738 730848
863580 743040
382700 289487
153056 471092
679367 25672
452658 855546
618879 490021
75267 877260
338703 468912
20775 595777
427359 309693
686800 683242
918068 218216
977944 414597
660935 137173
100284 694993
122615 805691
217528 452128
878950 978081
273986 142108
488783 165021
671844 560285
152049 360756
629764 591654
425728 239688
208663 66715
160027 213265
612781 739996
687714 12046
724848 457507
738339 112765
990327 497509
773806 448740
881894 964156
580509 594227
101309 504380
562378 664473
277142 848395
938329 530235
694893 144299
919392 204801
725643 551449
542217 257703
165826 348941
712779 563839
694433 171632
912544 158222
818900 263367
574386 291807
177498 239437
429600 238190
855874 34512
1789 651539
749111 171658
598280 635267
734454 930788
101161 398042
389443 260670
295617 481427
622196 630547
277527 827714
757196 514705
464400 461041
716701 582532
181538 941492
357527 171652
451935 789524
385681 980115
969696 959209
608500 235125
535865 927829
128651 635504
674774 959617
798357 139821
28504 387822
358414 118102
116578 510229
361681 326018
340620 220834
397515 59288
399219 670443
299677 105845
642069 775442
120184 628664
862550 547242
705921 427172
203885 988219
780994 171321
974156 747701
356723 175376
525706 637432
207211 277019
841863 476319
648967 484555
694290 213262
142023 696592
885171 877900
660417 276178
311132 714849
194834 423627
108838 564795
982433 828212
722514 284432
427301 993782
73556 665373
474604 711566
127280 647579
642759 96281
320134 828821
957834 697441
230794 693320
228145 887056
325736 954913
471094 528498
798659 142101
390454 389873
802171 141326
223685 17238
741394 853370
888561 631701
93110 41567
37615 162744
939712 536010
256818 586920
399003 988873
634433 353024
105545 298525
807955 382382
866446 810840
615842 721048
364810 471529
683070 201397
978390 742726
82988 867370
109682 396966
640289 684389
7818 116902
122250 677722
207889 606389
323956 893474
67669 768893
757144 986218
641078 67147
979461 823562
913951 807200
744276 581001
373037 739570
334902 54954
250351 593034
855863 654889
521676 292883
551211 520995
320644 37060
760464 321911
36928 861069
862788 859618
491836 340368
99009 102998
883546 369588
902737 726344
388796 268115
496739 116309
899797 787170
552426 944070
548268 554058
332067 805011
360413 674042
447379 781440
276198 825546
922796 933751
326874 80712
197822 773039
741926 863853
72566 230522
444954 967260
630223 652763
204755 986437
