91930 817363 509
78621 562777 470
738963 757307 424
707070 734010 411
53530 330769 443
45132 204468 383
176227 273377 443
39019 745710 509
201550 723907 509
579504 929695 525
587925 596438 403
334489 459809 449
445017 786285 509
19704 267522 443
78715 920529 525
199748 870674 525
324568 407855 441
379612 941629 525
32390 476554 449
404013 633295 509
17630 490597 449
160651 274650 443
167349 450241 449
68730 286677 443
302678 376327 441
591985 876117 525
356471 890623 525
324757 489399 449
23002 201700 383
375789 388361 423
94481 964282 525
432945 773053 509
581247 999920 525
124855 424149 449
505317 837095 509
108032 873905 525
188732 299780 443
426391 804813 509
22685 360014 443
497287 570799 470
778340 916707 525
459244 931717 525
546971 971185 525
440450 819346 509
595536 844702 525
450179 923353 525
410595 638519 509
33604 741896 509
653383 995485 525
582867 663692 509
382942 976895 525
23742 931714 525
688802 962705 525
799878 822619 450
200337 939161 525
701027 971969 525
752013 801747 468
453087 905755 525
279027 743283 509
801396 950633 525
691755 818038 504
615013 658585 509
388227 811682 509
62602 511311 449
746104 774357 468
104390 713920 509
533843 915372 525
369780 925398 525
216202 776138 509
166027 360576 443
857608 955307 507
197597 751866 509
136484 778975 509
479337 964116 525
335079 362267 441
314811 652048 509
787949 805825 468
238266 800122 509
382412 660334 509
80922 590426 470
80387 300310 443
732207 881351 525
354865 464982 449
365629 792432 509
697320 937460 525
137588 689331 509
37410 984399 525
305897 695119 509
407477 755494 509
386778 459211 449
90421 796187 509
13772 969436 525
287278 479264 449
116301 457189 449
428674 480243 444
213065 539656 470
179723 662548 509
770136 825235 468
2702 155886 375
267627 687151 509
448041 455987 387
311323 510506 449
533033 657393 509
243031 915081 525
245687 405373 441
26356 971352 525
312180 753323 509
449353 853991 525
134107 575492 470
55 177167 383
575907 634295 509
87145 234903 443
356617 658947 509
89092 932396 525
130857 718200 509
292315 780396 509
3736 57182 340
685936 796865 504
383884 890381 525
247223 298947 407
335495 344823 366
163948 452826 449
147331 907365 525
111814 249119 443
369405 529237 470
201211 565619 470
116648 856906 525
214975 753019 509
113388 943855 525
241923 247886 350
624814 731936 509
674757 813597 504
48303 864418 525
95853 139794 354
308720 864723 525
697400 901664 525
375014 849952 525
135936 237726 443
546551 749607 509
445422 455183 387
281408 471867 449
322854 809722 509
109157 573849 470
528257 603239 452
348410 969945 525
82739 259439 443
148674 381324 443
78091 618650 470
249965 907425 525
620757 707205 509
102257 873942 525
127473 672006 509
759890 961558 525
124057 496572 449
585478 968857 525
795702 840162 525
141616 648154 509
187346 566364 470
486905 679322 509
313491 364727 441
158996 909499 525
137312 548498 470
470669 843917 525
439224 969323 525
120335 711344 509
701036 880401 525
129072 274523 443
89874 671816 509
566593 937433 525
356193 897354 525
269895 787708 509
523415 607990 452
721145 725283 411
406388 703678 509
60054 270378 443
63018 167722 383
125073 928617 525
154792 804782 509
57953 364718 443
486 369007 443
612060 844559 525
1085 323333 443
465929 859788 525
6404 868963 525
429866 442184 400
220829 288603 443
503597 987701 525
278253 959283 525
51415 212795 383
333186 336163 335
240606 760489 509
192668 371446 443
438993 901333 525
624386 821681 509
832774 957424 525
196506 940683 525
602393 616145 447
566713 951834 525
435370 445816 400
656121 689254 442
591460 668790 509
321377 346126 441
940145 981520 458
423459 774659 509
108844 656153 509
335177 628592 509
243850 948117 525
459542 735386 509
427956 625515 470
590643 930888 525
432025 904858 525
221528 785057 509
519385 803801 509
217212 507449 449
6896 402378 443
289504 527482 470
76871 104381 351
573742 584204 434
618446 783343 509
506916 763918 509
