7516 403738
892920 956154
716728 316604
383744 579231
760808 79488
960368 948322
523300 314356
255550 244693
649929 881009
888826 840649
93112 135158
624022 613411
246150 437501
429691 688318
235577 785452
903923 980853
210748 307619
717951 327677
832656 209098
817124 682027
992777 859728
62450 518815
103546 29762
309043 490885
397301 351557
833551 510619
674079 659163
206553 440422
690224 659672
314587 964214
642185 192369
976863 544910
746727 115863
799429 78661
460388 489369
995997 498015
531140 946593
217890 26265
8366 59749
677495 876914
390612 290083
514833 140385
373792 910993
57854 478613
420701 748266
694937 102563
560112 287857
881051 890356
444367 460721
500458 444269
675115 573716
970084 176687
147570 146018
469089 752250
896815 306626
938495 293346
238554 218049
654612 672984
736529 326575
533695 260500
349527 616786
520658 869609
288159 835776
634955 857676
27733 561419
289072 612973
598017 171937
342062 47990
430148 954837
256331 228936
651032 805803
488228 769028
696280 299648
253052 561582
280825 262016
602657 66188
352180 281879
527586 101532
836096 964622
306967 911597
507374 370503
788407 149164
931967 722007
820418 968431
714772 201878
683597 425629
785868 582316
951705 712683
686036 65066
34324 306300
747455 13334
815944 43862
689839 94268
827336 447463
674526 20634
389876 829992
87555 882059
272155 572307
792474 976783
166754 144757
586311 686662
51661 973773
785658 826028
815749 253539
69663 66668
282884 222592
586432 839599
483325 267138
895767 717348
138594 234819
691927 949547
791977 224853
598242 471306
704710 424018
258584 680489
894742 81703
74059 354884
474802 519853
782402 282050
485376 710008
390769 183188
720049 931241
145490 906335
219373 869208
510219 58167
763266 835504
45358 976666
229287 939618
160156 673622
116173 375395
398089 910818
115892 381089
812879 898255
539836 127306
126096 905329
41886 165788
746938 97145
704511 228663
579148 128504
266112 825543
893729 184769
663629 965889
873905 502710
654540 315568
877989 923783
478688 39366
887841 659220
999981 529674
51293 405215
20684 775231
156352 901164
245596 534316
991471 726694
567454 310564
236981 890621
803763 766087
95978 635313
669801 319042
208755 992900
562363 852144
87397 207956
704371 143178
766450 31722
412724 666265
393102 545865
2857 876721
646779 547248
293491 84295
311754 550406
120894 508330
28132 55782
623752 418107
513875 510062
117363 286294
825762 967535
896014 721991
778676 751693
487520 138754
142546 403619
687684 993064
931895 351917
959733 844225
452282 490147
623078 163373
60726 681503
443502 433575
638045 760491
427166 241622
307190 219581
456790 664008
230554 346238
395805 389016
87450 728842
906571 422316
950324 300140
296265 932714
757159 414485
999273 282606
494720 398747
37 118510
206567 320893
326102 619182
199909 670482
103067 614840
48074 105189
58267 276379
577916 776341
436457 722561
668936 560434
65711 239743
62901 714988
72447 643444
123380 637688
198131 432942
644549 374396
886867 890293
778475 612559
937631 63396
671026 593480
791383 716018
408848 174724
958573 815263
774492 163748
171538 487870
265249 179026
337766 910375
701578 215504
765621 188935
793748 764299
563388 708433
339339 816167
929339 474636
375090 363799
923607 300990
774463 118590
835915 229100
692790 699959
982226 593133
144663 700987
893120 15297
600356 108333
615128 271931
995768 286178
461837 544782
862414 824692
747954 726001
982345 562134
190746 357897
63173 179927
974155 995039
394011 661319
126642 466104
80784 422135
450431 179955
657826 758493
549993 984871
394141 84339
299259 859574
737879 100506
646525 683790
53001 996171
401390 958434
