477361 730125
638102 883157
584515 965052
421368 800707
388588 875656
851657 950710
664212 871393
784128 887065
752272 870679
978711 990008
78522 644047
825684 941768
681812 684462
684292 988758
485099 939308
595446 830247
545868 894215
302275 816062
95278 651337
379302 435852
530239 802598
265711 625712
200893 720283
639454 723894
814714 900327
560018 942447
969246 978830
15941 978351
968611 985877
818790 961397
355172 902176
252786 444896
172896 346910
888911 987682
545621 555986
444831 617407
803972 967831
54995 708912
863295 922086
302930 963762
964981 983205
846174 926163
351577 420759
573514 577166
726394 901857
17420 152088
777437 909766
673259 995944
733538 855240
702875 960029
268216 659217
194207 243250
923057 925917
139021 436569
20708 32723
211484 914719
758590 975474
655084 985295
935231 936939
184175 338532
870749 898854
680915 690065
45035 891547
697816 737005
977862 989260
853053 897421
202970 684993
190771 646161
323589 585622
434023 647913
514174 931357
684805 998628
436848 804388
842781 874012
86643 481233
821575 911564
560915 708336
973990 997912
225666 622078
593347 606253
740091 795105
404578 690314
120578 674600
70266 830085
890996 994171
367796 642387
565631 972703
32772 934213
420866 820271
658210 938292
978850 995525
739994 861376
436493 481647
544521 842146
14105 516772
308273 766979
249517 791364
335791 410570
568036 834653
142489 936245
651169 678036
413157 955203
111646 386944
337602 379177
239641 481395
508109 819875
294458 316656
386649 781913
346527 422874
226833 512333
107996 707132
842435 975248
913640 914010
486459 680862
557824 585402
19044 812164
757975 950550
211247 452976
668153 966668
754692 851988
439312 893442
574380 899936
484515 975855
892803 947570
518164 887124
525407 878968
570114 589320
987082 988468
37058 718962
652028 706314
90373 710441
288628 753396
890539 990135
841188 871051
198329 867542
709269 732465
279825 881991
564242 862258
971498 984585
121144 884003
142432 598599
284451 297555
120823 433176
308218 694637
512937 857120
234910 542379
397942 476770
74947 156094
800338 886887
29844 601032
112470 607864
843091 927281
610301 752271
483665 977878
347100 876818
702995 953818
108056 125329
955252 995640
590701 793796
566551 615989
400463 861665
192543 233867
901321 991549
131091 309663
183167 552668
601171 815308
17333 170694
226536 939958
65510 114734
442082 492765
85703 314589
629719 800411
529544 676768
971667 980388
513135 554546
908073 941239
138149 462017
129554 529373
820717 978562
198252 262090
835805 922434
302221 895310
212988 707507
616214 997530
447931 502281
387066 933188
663321 783799
28091 545711
340907 623281
683336 733253
18498 353660
282600 373805
842474 878658
270844 719614
154962 286610
712831 944628
491282 519299
787502 789397
290111 745265
435923 663054
400339 607222
924628 929770
150470 594182
602530 754372
746651 959631
878123 924717
889285 972903
618050 988997
977897 991083
189723 190974
134652 337295
7398 788659
518188 898575
70823 366636
940539 974671
56631 792910
280077 402868
58069 194296
238105 425266
334816 854200
752783 890996
624511 807204
606294 651019
455309 499794
274558 661074
524081 887755
215762 681475
699506 983376
873620 960367
875076 947371
202768 409429
703119 898549
457781 991257
826723 983962
833436 951433
543442 707994
534634 962480
713623 905128
