674342 106728
862723 824391
258903 571557
659479 232676
210532 195313
204829 279984
339550 934908
994130 315282
880081 158861
938779 757602
171323 972372
414406 50727
76462 776979
91803 54286
681287 923579
144833 815823
922788 943137
927420 863164
611923 95301
284503 114345
264048 312614
164150 876858
145519 244360
767450 517862
290454 646438
408394 81013
737740 312771
101314 485298
925972 687458
117716 334996
944455 126400
239450 423190
550753 949077
439406 145353
563284 943957
990036 904112
772787 69193
726225 483032
949812 426118
596976 551112
472389 945423
799660 340223
120852 474091
363037 607578
234924 131608
481147 758763
907093 40583
357676 567034
57240 10530
349134 751554
233567 838990
249078 146128
585513 1200
360688 633223
808451 400569
176088 631272
754534 528750
431915 716625
444844 861370
192553 22118
963413 312384
652251 348502
194843 945012
208990 898754
194955 299785
35980 176083
828975 186295
488316 453191
17998 38262
736032 993253
451690 371977
841132 631522
834450 88574
365118 925466
745674 793118
136023 483784
229712 855997
716858 417443
921024 468620
15801 981581
933988 16944
40102 736805
234255 581183
156884 260795
210910 252726
749673 800109
248182 637828
205378 735843
282186 773799
270574 686759
709295 970471
486122 225169
699952 383310
363822 502044
970596 303737
666741 621189
38167 611064
18223 580030
993945 212017
947164 793309
533656 46476
581185 517802
636887 749714
812719 874825
209291 116757
841417 987494
677711 183788
464242 396759
563762 585719
566796 625233
757269 443829
726163 32930
516939 325851
452350 449538
753614 114392
944132 798662
866141 673179
314135 935416
955902 809961
178515 249510
584330 981028
396746 19491
674034 187569
286903 31451
892938 134280
900975 835541
36888 659053
88838 630992
360774 148207
716238 492242
291847 699174
873972 334885
533494 925466
614826 43363
810422 295756
62291 464617
659025 822406
142833 914965
504444 528746
736405 212661
468002 250092
648045 854385
920742 785530
999654 2940
897998 284039
362733 567
431586 587189
530833 55200
651558 524479
712746 2246
924177 778326
135379 798050
928549 719645
820891 506323
338293 108488
4938 422869
861118 164093
84994 628966
428965 63554
78021 956042
42983 108462
995993 848372
411987 113676
705818 910693
307881 352152
673854 463673
74898 745153
302399 709420
916272 93826
565984 867777
226564 576995
385565 132903
574015 924913
317286 699149
11792 623745
374112 143204
818958 718237
751710 606536
874094 110962
712909 757297
326256 602046
58692 661762
771183 755209
612922 946210
57928 603612
352936 210790
979415 88823
168203 834860
698296 965697
138289 701200
210725 46931
326657 914499
804423 4373
850474 276888
530169 311816
870938 175809
324553 23711
257769 271335
681086 909091
672482 880832
483379 75653
882953 385711
404994 279116
467689 193955
293935 43577
55573 188507
195113 730156
760902 469253
774846 580169
373859 606436
192680 402538
388769 951592
836846 725565
701632 462473
933018 333540
485623 843909
802981 74152
795724 942598
406815 902010
270840 311471
14791 14145
373009 193113
945849 704729
342253 608296
135494 413146
13375 610420
75666 976741
117685 929566
438003 853553
608671 239035
632415 506949
170790 371175
352349 962947
627588 680700
302 197027
