984615 598470 525
295780 123589 443
917196 503329 525
661894 983801 525
632496 234633 509
478346 594055 470
5435 76 238
633703 907281 525
552895 943467 525
798954 930107 525
2061 259797 443
781753 919504 525
934818 54520 525
551938 793311 509
19701 133174 354
746999 530640 509
494114 137296 449
104202 678051 509
222225 853489 525
830049 54408 509
488856 249728 449
694481 170961 509
892067 252934 525
174345 235515 443
186055 252128 443
49563 414733 449
649953 423441 509
47213 795215 509
664247 611318 509
76677 525113 470
360319 538711 470
464569 459569 444
833180 245075 509
107283 883969 525
445610 877540 525
298468 77501 443
4509 802920 509
81410 591014 470
574182 620213 447
818222 520394 509
714659 803710 468
451686 172236 449
305202 148593 443
242188 264842 407
41978 291567 443
648348 418684 509
861742 267296 525
152879 491578 449
904422 122864 525
314198 77683 443
516082 276577 470
98517 755174 509
277051 851932 525
647918 826729 504
592376 754239 509
985388 664640 525
756266 569915 509
780426 377588 509
289376 87796 443
321431 265434 407
59432 912656 525
144536 620324 470
279176 259400 407
850601 172433 525
267270 498904 449
942683 534843 525
31871 714030 509
755186 238913 509
157977 148390 383
205519 511275 449
917970 46021 525
253005 456754 449
197711 654672 509
1340 175074 383
41865 690083 509
699387 898231 525
710201 199233 509
593959 428109 470
226183 507682 449
163120 909847 525
685801 963744 525
513299 628826 509
957507 940756 414
345972 35805 443
65393 200089 383
117900 91371 354
397332 578648 470
216629 340979 443
569115 139937 470
713801 694883 504
652813 116020 509
184352 285246 443
660265 330678 509
506927 495038 426
61345 767728 509
888437 307081 525
297948 186671 443
450934 837929 525
549072 424854 470
62836 585242 470
131930 524176 470
732467 615097 509
651369 760996 504
978471 300817 525
877688 929288 476
508259 585954 470
80224 891031 525
189342 103031 383
954056 382590 525
107401 951132 525
290589 681222 509
421182 458810 418
788815 732027 468
795019 725138 468
140098 14354 354
812871 231612 509
994108 85761 525
29447 454972 449
770041 925928 525
803718 700299 504
470378 801956 509
693554 493027 509
152557 910496 525
912393 275976 525
315176 166419 443
830342 882983 525
394329 950593 525
936132 331364 525
57694 970566 525
124596 989515 525
562655 181909 470
656491 847588 525
346987 971222 525
329710 99757 443
511680 24639 449
573290 523788 452
891394 838808 445
793400 307125 509
736690 756689 424
274933 217874 443
706842 649807 504
233788 500132 449
480401 482898 413
656713 932181 525
75554 275416 443
571997 947997 525
468751 73765 449
848639 68396 525
750364 849849 525
866255 870957 388
557821 610438 434
740679 767336 424
987345 222295 525
180218 227702 386
732106 272171 509
80432 509356 449
843194 159200 525
809805 95493 509
892245 398545 525
957194 939020 507
292772 161204 443
553369 582170 421
923160 81551 525
767876 214190 509
814123 363566 509
982504 18645 525
796529 336717 509
635312 139264 509
954390 767525 525
272006 168847 443
268116 112181 443
145587 571770 470
658429 222051 509
514669 80548 470
257251 690111 509
368178 215357 443
895588 378044 525
340826 44819 443
489409 479156 413
835102 685720 504
285518 997762 525
290462 900349 525
257226 352691 441
43605 614959 470
606175 934706 525
213751 877889 525
38185 301178 443
939504 236752 525
948200 200904 525
452841 576335 470
346725 56182 443
913587 250405 525
595507 491245 470
750598 256537 509
819964 701900 504
906242 97533 525
12884 224463 386
487838 596443 470
639106 661085 429
821365 234961 509
912139 263796 525
360450 40607 443
