872847 474108 525
817796 253909 509
980772 535949 525
98801 670931 509
408453 745397 509
767251 228237 509
803864 672436 504
10292 40868 324
354053 102528 443
841054 320796 525
127310 173310 383
445650 670328 509
373311 143594 443
76633 865657 525
149327 486254 449
768634 759431 468
898936 332354 525
463658 460117 444
2624 375305 443
407581 134635 443
748138 643400 504
292480 919800 525
11724 897565 525
167242 790003 509
494890 417465 444
847396 3911 525
862242 679064 525
664453 823922 504
263323 226180 443
604069 892287 525
727970 551669 509
9542 278166 443
598012 537545 452
697774 625895 509
854178 540266 525
768019 473976 509
55365 902911 525
99686 347173 443
789986 837589 468
344943 982517 525
916347 346970 525
71774 960267 525
150051 723325 509
190961 602194 470
668565 117433 509
622459 689737 509
711339 460686 509
413435 146493 449
625752 104893 470
116993 858215 525
788210 937648 525
245087 848195 525
692615 151836 509
373277 10227 443
83296 362556 443
283940 28401 443
559446 422808 470
721024 316964 509
308140 730805 509
781860 554730 509
986157 541997 525
624332 752177 509
295798 30245 443
910151 669709 525
169561 126923 383
110893 247753 443
922980 530958 525
85037 755996 509
195338 961131 525
303858 605398 470
826148 925417 525
61815 896446 525
69186 599303 470
757569 985166 525
799170 288720 509
102650 347727 443
852202 564946 525
42611 574708 470
11075 538342 470
472972 349737 449
783274 980671 525
811393 817772 375
183812 230624 386
458950 784356 509
600980 243748 470
284338 640642 509
287488 465720 449
689143 619230 509
618030 891686 525
590455 764936 509
790938 492269 509
457788 902926 525
347823 312805 441
843896 441867 525
969151 949129 414
428641 908278 525
478453 28730 449
39000 523368 470
330894 829896 509
986377 944940 458
206037 756559 509
158839 853655 525
349298 74973 443
72945 272937 443
364782 146376 443
124279 727565 509
169299 843603 525
197496 205624 355
976576 741778 525
415806 352323 449
412413 603720 470
736713 812084 468
996461 125190 525
286593 934662 525
980035 551602 525
804537 386516 509
585885 757396 509
598546 456929 470
321200 286421 389
764480 262281 509
477699 83386 449
616142 510802 470
147146 196194 383
870881 851620 419
846429 739923 525
652722 29520 509
264023 353418 441
686478 149817 509
506358 542506 470
558400 53919 470
519394 166611 470
528500 364814 470
928383 858124 476
230709 355651 441
515409 736779 509
754420 365427 509
292711 527908 470
790825 222193 509
536093 331792 470
565463 642575 509
782376 913468 525
519317 733061 509
591066 467469 470
5268 986960 525
912941 740890 525
120236 566095 470
159002 943623 525
998627 2412 525
317176 896717 525
136916 884943 525
556243 565478 421
80520 810384 509
784412 835464 468
789134 885557 525
46413 382650 443
200174 488147 449
184554 600426 470
28488 407766 443
630689 814755 504
821090 443933 509
638068 31851 509
82444 135880 354
591626 842463 525
341294 77542 443
706716 972278 525
632024 277372 509
233332 675431 509
643065 643644 279
508807 581739 470
840852 674199 525
702859 661207 442
740050 25720 509
22813 269072 443
27043 27593 259
430685 665936 509
660599 893560 525
921843 370366 525
925759 442684 525
11536 847599 525
984587 917868 507
693612 44700 509
161660 56607 383
92362 531737 470
569215 49381 470
834084 730959 468
592741 476921 470
314192 315826 340
819760 501732 509
739166 347520 509
50777 936238 525
220232 584522 470
584403 298192 470
424125 716745 509
873935 789832 525
169796 138258 383
947401 64623 525
748712 986997 525
358223 301836 441
756800 233061 509
124758 557124 470
549845 601504 434
272118 693684 509
8552 82974 351
999123 468795 525
413163 449557 418
315381 490810 449
117177 253106 443
857593 314579 525
789766 905199 525
841547 648836 525
576574 63551 470
67865 452546 449
444969 385127 449
315977 636392 509
570883 791387 509
436213 484025 444
167784 436847 449
293766 844750 525
718542 851761 525
572965 310618 470
272488 516870 470
392120 482028 449
35368 815086 509
858218 142661 525
934849 333614 525
502652 881415 525
807935 919287 525
956411 118250 525
690858 414376 509
710385 896602 525
930304 293178 525
285136 175157 443
741452 863009 525
553878 825613 509
652588 113591 509
176345 760040 509
621308 640220 509
211273 832427 509
340731 184789 443
