128464 458922
315947 925515
881507 281447
11470 595594
307612 281699
772322 60917
824460 785829
189030 71472
83173 777782
511182 29037
950654 393481
834527 62645
237860 158113
97723 939901
437466 939754
161040 265490
757591 692885
766053 644396
455729 368077
994899 498974
254375 553548
838120 404233
259428 167589
205413 23318
86404 276365
436332 195771
79419 315736
604814 756918
94813 654802
145559 65419
465779 405670
863654 183468
517979 668784
311622 401405
422026 585079
288183 445148
287965 548233
386571 391245
893990 51618
404875 519351
818421 996386
900520 190354
604238 612614
668991 772512
943410 613730
171650 370666
55684 36908
403006 889527
837649 601621
730566 152408
592320 154367
211405 984632
612600 236726
987180 122829
236760 207206
385989 203963
853079 865831
523326 989394
106788 127312
599762 253486
682122 277474
575649 118354
230690 730362
215410 778322
972391 675468
471128 428709
15911 200873
722159 834410
282475 756178
92250 591461
383074 335925
376135 344919
99605 160761
376397 7982
83619 536909
849580 801918
636080 105196
368193 980587
262969 222939
880607 204165
866540 806883
375545 984911
834009 749063
156052 683149
152254 454195
715490 960112
259124 44598
543010 534650
689345 199815
521619 922689
386608 422883
977825 523312
458344 254295
578764 735232
989678 592064
608695 685010
486028 632597
627647 762259
925722 9805
438123 86731
372834 961794
124564 643563
990933 589943
736726 770091
119227 761573
449936 736107
101055 749936
758798 898815
535691 153988
592410 559499
511109 243253
29196 533288
714051 794540
881451 716064
526083 578894
500090 790926
79845 430615
766996 783226
942260 209609
765610 398886
308418 759669
820379 926819
599705 643864
610185 40935
284592 737270
179001 336392
728925 678422
891908 268791
523387 416471
833568 771578
745391 799135
995855 825129
986670 8299
528555 813832
447673 179261
702362 568977
336993 765115
115848 495426
354292 953552
472433 439766
560533 916830
640262 209827
350286 20976
179583 132252
451053 96972
801163 537600
477326 453604
400562 459665
752936 489995
604354 641514
330587 934277
324818 242941
234849 541761
465941 520795
657939 523071
418821 961451
502043 231320
466010 691603
202928 376556
470860 494243
198842 318874
217977 826242
2857 585893
914801 782654
897410 828505
408480 590412
770325 704315
141090 578639
700450 396973
591213 864079
485465 608168
827847 421082
309576 79376
543044 856131
860873 536237
422038 316627
318846 84157
605754 114851
117817 869337
361035 77817
554092 491421
704143 53568
214165 853798
346207 180238
480755 161101
883889 842125
747689 649012
316545 353246
212030 277444
51998 750346
196105 122030
980961 357120
376366 588548
558457 944510
318697 172605
172588 51261
261210 529290
964213 272407
692854 195588
602909 569122
152263 760807
146763 705398
851947 446134
895973 640977
440608 826741
331071 433644
237681 810491
162482 645269
104163 209360
235167 566453
821826 171911
558150 795311
606699 238351
429362 951535
745488 639268
694030 886553
660607 625715
294701 204856
543844 90649
911823 791609
336239 800733
557059 487635
322510 165241
355507 54176
910881 119816
641474 801388
746278 369702
389522 594885
370670 830891
669707 496097
555272 837738
802140 904489
146230 735941
508173 760106
998147 241365
17130 576644
863352 680010
935875 86840
546034 293033
849852 822977
774345 61123
494592 595129
565553 822742
725694 980689
252332 861296
630793 226387
651114 563136
588324 712691
604942 432989
36451 267291
71545 868889
148542 328839
905440 225633
111715 598427
31172 224010
246971 592790
