878375 140570 525
149626 200213 383
935290 768264 525
694397 994326 525
823700 921192 525
751002 34674 509
521277 865532 525
531892 679518 509
662134 369971 509
768354 103756 509
823928 222624 509
541812 468730 470
770605 35075 509
747100 901645 525
890014 935771 476
990347 344962 525
327087 884683 525
630147 217511 509
929045 820339 525
382812 767608 509
499255 560786 470
369641 705961 509
462800 368825 449
787051 584003 509
706774 770355 468
618525 291486 470
29904 586821 470
755382 345136 509
344100 785656 509
147317 583712 470
826200 784295 468
789497 948491 525
889226 700020 525
597931 518545 452
16112 827013 509
847045 442302 525
674962 982002 525
641372 564672 509
938073 461831 525
439465 409902 449
26081 427134 449
830255 868521 525
859624 223708 525
951078 507661 525
540803 159947 470
241333 983851 525
553339 746022 509
591930 347152 470
172671 166610 334
867658 947994 507
461199 462626 444
616125 54656 470
249333 941163 525
306396 497707 449
952725 233675 525
926886 671897 525
856242 502831 525
167953 391973 443
999172 965650 458
673048 736214 504
294123 394777 441
550904 392307 470
263938 594482 470
805162 891539 525
832052 927535 525
750992 269744 509
180265 938919 525
950060 212438 525
815258 650311 504
943476 496708 525
600559 777806 509
844430 60214 525
338832 779630 509
384579 621579 470
258861 846062 525
673789 215536 509
320488 507289 449
243599 378960 441
494768 318028 449
65652 844314 525
458586 187842 449
559561 157860 470
436011 640474 509
72673 193157 383
407766 799432 509
977674 687311 525
256340 312500 407
710417 224314 509
904922 738794 525
76284 314920 443
321383 337081 384
811841 381978 509
882751 831073 525
463838 100370 449
994398 595894 525
178074 162684 352
465197 995861 525
511219 536318 470
867094 652447 525
14812 656973 509
443556 532838 470
806438 10433 509
218693 778821 509
600330 170031 470
69010 814142 509
456120 895340 525
456116 391753 449
985595 551002 525
280438 279003 345
466989 728168 509
214031 428738 449
110592 859811 525
442351 852691 525
759064 133581 509
493005 480775 426
411343 706076 509
698585 4330 509
981520 686932 525
447819 597209 470
780671 788481 406
120954 958322 525
56175 72518 335
819152 522202 509
578988 147209 470
576477 670652 509
192338 16984 383
626404 331027 509
519349 427828 470
110040 193846 383
159454 384071 443
450854 937996 525
179471 29864 383
943694 236208 525
307375 807886 509
726335 371359 509
517085 737212 509
730586 142819 509
684280 138083 509
811540 201424 509
161888 893473 525
457741 837692 509
277739 578245 470
159081 724455 509
488618 108322 449
501341 473363 426
500552 32773 449
86759 60969 351
520177 340868 470
627298 297684 509
865789 497352 525
556738 95723 470
835334 45017 509
820226 232616 509
935917 964147 507
212267 924347 525
31022 191483 383
843111 245987 525
884967 855702 432
774045 190149 509
638227 824737 504
222390 989200 525
701501 487270 509
797194 837795 450
970105 492080 525
522463 771183 509
682451 204405 509
863010 965624 507
932501 332393 525
55579 321433 443
288841 327371 384
733416 333818 509
442969 144319 449
601570 283537 470
975350 142730 525
384703 624921 470
523873 31458 470
840421 735072 525
50618 258993 443
681031 949498 525
560654 385145 470
146595 851946 525
989580 282629 525
657045 814885 504
748354 448629 509
278562 257617 407
870022 187863 525
971652 543326 525
530978 425677 470
358902 695495 509
919195 886761 476
178217 308828 443
915876 640701 525
54187 197399 383
930066 517491 525
869389 57051 525
220023 562627 470
103298 603601 470
196613 660026 509
50918 468670 449
749568 708755 424
637519 748101 504
430164 124994 449
149496 14346 375
418696 368435 449
44538 786163 509
989790 821688 525
422894 725180 509
887284 659802 525
81719 838001 525
615844 546750 447
69890 426716 449
556671 648770 509
963211 444067 525
956303 379543 525
164394 666484 509
874338 307214 525
393100 575095 470
515770 27991 470
413389 12489 449
729632 187057 509
214340 953926 525
632680 494332 509
517703 873746 525
198174 254819 443
723347 289258 509
686611 461132 509
693858 597773 509
422802 466644 444
373455 610498 470
750610 906991 525
536859 956144 525
