36900 870872
677063 59800
471153 779596
572073 117170
973835 702417
332144 397020
998556 597615
389024 949851
690178 796506
600101 913097
915890 123600
878341 366190
231669 562969
340011 762887
66057 270247
735020 288316
576302 211540
387664 902298
454167 301230
74910 550404
987589 832166
826593 608343
489465 704467
319928 210456
736162 4159
517166 257249
841403 874221
327479 33613
838437 868402
125847 73365
536494 266421
735806 647949
945390 504507
761194 306609
93209 225157
40506 962005
527566 206341
379982 450142
241518 40091
191374 65049
17754 132159
534977 963416
412869 771743
717051 40853
430723 630603
807943 842771
615841 642017
264095 581829
113607 123673
92733 8802
526511 419936
562 591867
158013 510298
883815 416166
918893 28061
35795 946410
666789 971820
289306 147873
555140 454480
159544 650175
133791 906986
932940 579739
996264 706085
420514 384044
571287 361651
979615 773059
583353 800008
498291 680008
359711 929644
683923 511331
938111 697032
905653 435726
347978 661931
439944 506581
249192 858442
265881 777222
598201 809528
847773 870618
372503 453896
561656 633230
845260 654186
916715 955072
175583 861012
278271 378522
100082 448601
97949 459108
445774 650764
313033 538812
413041 683015
296868 27985
237024 502167
362228 820980
598798 430202
949990 876036
171586 59718
84622 872650
402985 623973
919048 290357
930299 171161
954024 545833
144129 687777
847247 207478
26985 833533
175789 765421
252538 329925
878429 875642
281714 299371
151943 727208
179418 893294
36487 114691
84845 541634
564710 189477
181027 283373
258420 612835
472350 379664
60738 438392
267414 22487
280394 270347
147231 281417
298657 366786
821132 897256
324031 314670
408634 589865
19856 640338
855779 115316
31795 654705
554395 896455
676190 519353
498048 826583
982627 752036
32985 264326
62701 424799
890090 881796
961872 392076
26337 225415
137385 170275
205558 317963
239815 655417
275242 250524
162460 553849
882194 149778
354403 985037
518730 460009
248883 161215
203480 709967
507355 555855
526114 621910
50818 207813
522085 478118
809374 103053
786166 211238
266903 9848
132044 330259
817683 218048
484546 806021
899564 298954
275397 591717
356204 540296
940381 69979
737047 200157
818542 181222
748229 246367
398237 973088
476494 894925
123752 402087
765756 703238
239551 414772
474456 37195
792117 388938
818687 329925
384059 840238
444304 338478
596873 761264
631617 398557
319091 593016
381752 199823
10304 305867
284 750221
996020 258656
877085 171436
732164 29838
630049 56329
893939 117809
81098 509110
418803 498154
458488 860654
645657 339618
567363 973451
201521 708325
749250 291649
175644 815681
382408 348796
841685 386623
887007 599450
902431 868327
178677 695641
757717 773922
418810 504770
146839 296435
15004 524376
377058 134790
723669 145071
981859 664512
38952 791252
562515 445138
201223 751990
643263 585712
526215 171779
692049 744052
484268 988715
490508 722395
536324 280686
694114 655165
207958 549644
245508 254094
737008 993872
625777 573523
746078 867394
751939 735789
320527 301499
317920 213915
62756 659715
362793 104997
822098 844593
942186 234526
14360 945394
52249 783813
444799 56448
175482 919053
193670 792713
403966 565405
135254 665259
340413 691377
200832 157035
601708 926542
