899301 225570 525
891220 792021 525
158332 385625 443
484534 943504 525
627576 328099 509
934865 903322 476
924316 877412 476
203664 567399 470
510774 287367 449
292948 29527 443
535817 433154 470
513928 856024 525
23196 886030 525
977636 602485 525
604620 44085 470
665031 788864 504
599875 13496 470
842949 627132 525
774360 802173 468
978046 203700 525
231946 550952 470
159508 110294 383
576740 647128 509
46276 520567 470
303926 46865 443
770993 428525 509
21776 446162 449
295555 89505 443
400713 830337 509
211961 894724 525
292405 20663 443
787152 450970 509
325646 842113 525
580350 388314 470
411135 123528 449
700209 594505 509
509449 418606 444
196743 764657 509
107363 626131 470
767233 584671 509
83176 323386 443
952730 177739 525
696839 905486 525
925911 579350 525
721857 472494 509
281224 457604 449
878258 684853 525
260586 61468 443
220009 759474 509
444074 342271 449
977362 14565 525
200372 113042 383
751512 209445 509
404502 726055 509
864297 921874 476
8964 520216 470
195296 393878 443
158228 270754 443
964902 294135 525
606851 170860 470
417046 369692 449
917444 695433 525
469486 637364 509
661696 143862 509
459786 781681 509
688584 898288 525
439155 151053 449
425704 671939 509
397036 310746 441
536377 593769 452
263252 531892 470
319278 976599 525
771322 595845 509
328030 868188 525
269062 830983 509
168838 233904 443
275018 260150 407
621487 269596 470
362379 20679 443
515343 934829 525
903528 115924 525
912274 666131 525
564922 147142 470
649646 381993 509
197805 600288 470
820645 363024 509
896989 357917 525
584209 159592 470
138914 521523 470
512462 19613 470
4974 32619 308
285423 593085 470
61027 353755 443
90221 720702 509
377106 863158 525
275999 2251 443
631238 301428 509
92496 710756 509
816875 781466 468
800465 670523 504
900284 849536 445
329058 995084 525
966381 420732 525
613086 885757 525
892664 588747 525
805457 309625 509
362650 170697 443
303678 544383 470
54699 231577 443
679450 712376 504
393216 663118 509
723963 252866 509
913776 273350 525
273718 238556 407
931377 772549 525
486033 326440 449
326077 949258 525
143481 417153 449
722341 655179 504
941530 396649 525
135686 331153 443
508070 300996 449
866092 438570 525
938220 894257 476
847029 855436 419
600830 704930 509
683305 977103 525
988826 646773 525
224094 408470 443
864295 291334 525
914428 782676 525
21154 54127 340
500298 601603 470
208060 784031 509
431310 138117 449
616246 71529 470
406251 186115 443
142184 750392 509
272954 522074 470
326026 607362 470
515481 453865 470
143667 78927 375
21689 587795 470
91373 98339 333
780289 299040 509
423228 482440 444
394246 123416 443
741965 147957 509
975973 548159 525
46218 903682 525
368684 922786 525
928320 386516 525
215643 475341 449
601781 854531 525
881799 725566 525
987322 882975 507
576974 111343 470
354891 314174 441
627885 128789 509
817018 91380 509
827744 904077 525
556087 966631 525
826205 556148 509
276157 137744 443
236928 387257 441
635224 245531 509
823198 869843 525
579279 192261 470
668418 89644 509
199176 589208 470
516427 784242 509
105798 780644 509
861404 10427 525
438758 616738 470
490241 471869 413
825047 965461 525
152826 144168 370
332954 516987 470
230567 933236 525
627671 914630 525
425478 477976 444
438846 741260 509
15376 562161 470
477976 107125 449
158361 763820 509
90558 937652 525
662271 700059 442
215969 335267 443
188142 133754 383
168563 997588 525
218438 734026 509
648859 31395 509
125215 675222 509
626870 433249 509
630562 356635 509
594442 544085 452
41201 524838 470
243685 212414 443
353052 236291 441
954018 901669 507
597915 701441 509
425378 65511 449
818881 220384 509
472892 576595 470
703644 28421 509
330691 940750 525
200837 624972 470
792008 592688 509
178851 90437 383
534852 748261 509
706837 545553 509
520190 27110 470
162176 562539 470
836283 671758 504
471086 426521 444
826458 609673 509
129024 82538 354
302056 367377 441
397373 175222 443
792247 41947 509
290235 707825 509
486197 209210 449
527011 553696 452
632148 76842 509
278469 930889 525
12915 551407 470
219009 279426 443
778929 649411 504
321407 106030 443
629690 811241 504
482253 964655 525
564431 787268 509
709698 904362 525
35469 504089 449
383798 126703 443
816806 325643 509
981075 593512 525
202772 560405 470
592648 706970 509
625009 735637 509
978788 546551 525
544179 73895 470
403754 184174 443
121083 276884 443
232875 732300 509
496133 908418 525
679310 563285 509
418814 960395 525
927426 245684 525
781352 478676 509
722163 846449 525
474173 730456 509
674381 640964 442
719798 42589 509
502109 415705 444
254640 372382 441
270335 781340 509
88822 639607 509
218310 597479 470
319964 893597 525
978729 818930 525
442240 656130 509
739088 491316 509
95462 836631 509
481397 273083 449
301451 922493 525
868422 600129 525
729823 341966 509
307565 956320 525
906192 789247 525
364856 297930 441
872158 98719 525
566557 555276 421
465851 284602 449
709731 531216 509
362863 393181 436
172531 482629 449
475989 925018 525
561734 594968 434
66768 703100 509
923689 782318 525
975885 396191 525
628581 429318 509
817541 98439 509
59101 122583 354
364535 14022 443
61637 272051 443
497375 953420 525
