198575 972504 525
705205 296449 509
290708 106030 443
185533 617965 470
191881 820068 509
629815 361038 509
123860 410086 449
630176 235074 509
19312 861603 525
788229 252857 509
472341 141701 449
845909 280194 525
245778 651886 509
988757 611968 525
887399 370420 525
283567 177930 443
323263 124473 443
731531 995384 525
443702 932996 525
371693 474148 449
2703 184160 383
321121 240522 407
492331 165732 449
988838 875154 507
942740 601981 525
717191 224480 509
696356 396390 509
816676 926077 525
538055 435620 470
518337 208989 470
985254 902530 507
656855 147653 509
111494 411310 449
61400 842330 525
157285 356842 443
186424 160823 365
949128 758013 525
410063 526255 470
987856 1762 525
490304 34081 449
689702 993519 525
262754 220440 443
23341 406218 443
380079 911348 525
197061 644779 509
127050 8084 354
116809 664763 509
316277 82616 443
827636 886804 525
678785 479430 509
638544 341801 509
270986 659702 509
799112 410009 509
155813 82931 375
273921 152749 443
884108 247108 525
925168 20292 525
540273 633668 509
106372 329024 443
699767 957942 525
310351 501505 449
728147 314592 509
241639 366572 441
163802 307742 443
957084 599874 525
775519 788354 437
80552 767327 509
942613 573533 525
998465 174495 525
733295 96036 509
84419 485255 449
402525 886192 525
18366 264602 443
940235 77679 525
367408 843756 525
113322 573912 470
261965 59067 443
849323 747091 525
925588 827495 525
904151 917175 476
962598 171913 525
781306 240446 509
324197 603333 470
75380 203587 383
148280 811380 509
545543 244650 470
2161 756415 509
397300 453576 449
243670 950815 525
630395 315096 509
819249 343362 509
462297 453296 444
891796 150746 525
715531 592679 509
543700 845750 525
753925 788053 468
758174 61683 509
118109 829143 509
580407 871486 525
167574 12220 383
400000 703167 509
844220 936405 476
79654 862730 525
599073 677295 509
570689 778011 509
712571 766068 424
605756 199249 470
236598 746782 509
448845 383002 449
30436 593489 470
864596 603054 525
42277 265163 443
159428 437967 449
517355 921192 525
727151 369601 509
378285 727421 509
842689 748578 525
706011 22611 509
237132 890430 525
536483 207960 470
993358 631288 525
795478 449008 509
923624 400888 525
697337 285967 509
118974 930293 525
374979 322910 441
196225 421239 449
637501 205128 509
128625 923600 525
730177 397416 509
181589 46217 383
952018 285295 525
916310 295612 525
757303 168591 509
371254 333047 441
311913 745478 509
533500 253676 470
687078 775698 504
296432 571798 470
537403 886576 525
826721 90516 509
602233 670920 509
578971 47433 470
396977 340796 441
79710 751990 509
506091 528095 470
880502 127954 525
624933 386455 470
474734 336882 449
220757 517478 470
475679 487766 413
335089 764921 509
471980 874475 525
120451 578032 470
507043 851367 525
106865 333169 443
381350 117748 443
894808 446339 525
345255 84422 443
632917 118419 509
904224 551453 525
510174 803805 509
608316 580526 434
835204 803317 450
774645 121204 509
722725 979818 525
570806 781891 509
616646 67897 470
808521 113379 509
45280 143001 375
293683 444147 449
724366 95048 509
310302 297031 371
192288 198470 360
166986 660785 509
386122 188196 443
776348 232024 509
111592 632302 509
787437 164906 509
240510 890772 525
591363 766419 509
118810 864379 525
750769 272277 509
121874 589766 470
264958 326940 407
24167 39765 324
805923 965098 525
70527 98774 351
910445 498974 525
224569 964208 525
279613 837550 509
11083 859550 525
230808 307616 407
674742 54197 509
80449 608119 470
35247 31574 311
206919 846451 525
106963 185912 383
148076 153025 370
804781 423673 509
517897 349499 470
641978 205110 509
586814 357925 470
776694 594723 509
310173 302698 371
767555 239146 509
138547 224187 386
322091 670414 509
66841 169695 383
859947 348779 525
639741 196632 509
61524 251330 443
6858 971057 525
396620 478415 449
59580 10310 340
832031 755689 468
110012 122636 349
523176 744520 509
529513 278205 470
